module gitlab.com/prettytechnical-tools/bus

go 1.21.1

require (
	github.com/pkg/errors v0.9.1
	github.com/twmb/franz-go v1.16.1
	gitlab.com/prettytechnical-tools/logger v1.0.0
)

require (
	github.com/klauspost/compress v1.17.4 // indirect
	github.com/pierrec/lz4/v4 v4.1.19 // indirect
	github.com/stretchr/testify v1.8.4 // indirect
	github.com/twmb/franz-go/pkg/kmsg v1.7.0 // indirect
	go.uber.org/multierr v1.10.0 // indirect
	go.uber.org/zap v1.26.0 // indirect
	golang.org/x/crypto v0.17.0 // indirect
)
